…
    ## Rows: 58 Columns: 3
    ## ── Column specification ────────────────────────────────────────────────────────
    ## Delimiter: ","
    ## dbl (3): gender, education_level, political_interest
    ## 
    ## ℹ Use `spec()` to retrieve the full column specification for this data.
    ## ℹ Specify the column types or set `show_col_types = FALSE` to quiet this message.

``` r
politicalInterest
```

    ## # A tibble: 58 × 3
    ##    gender education_level political_interest
    ##     <dbl>           <dbl>              <dbl>
    ##  1      1               1               38  
    ##  2      1               1               39  
    ##  3      1               1               35  
    ##  4      1               1               38  
    ##  5      1               1               41  
    ##  6      1               1               40  
    ##  7      1               1               36  
    ##  8      1               1               37  
    ##  9      1               1               33  
    ## 10      1               2               41.5
    ## # ℹ 48 more rows
…
