…
# Reading the csv file
politicalInterest <- read_csv("Political Interest.csv", show_col_types = FALSE)
politicalInterest
```

    ## # A tibble: 58 × 3
    ##    gender education_level political_interest
    ##     <dbl>           <dbl>              <dbl>
    ##  1      1               1               38  
    ##  2      1               1               39  
    ##  3      1               1               35  
    ##  4      1               1               38  
    ##  5      1               1               41  
    ##  6      1               1               40  
    ##  7      1               1               36  
    ##  8      1               1               37  
    ##  9      1               1               33  
    ## 10      1               2               41.5
    ## # ℹ 48 more rows
…
